…
``` r
trans_ent %>% 
  select(station_name, line) %>% 
  distinct
## # A tibble: 465 × 2
##    station_name             line    
##    <chr>                    <chr>   
##  1 25th St                  4 Avenue
##  2 36th St                  4 Avenue
##  3 45th St                  4 Avenue
##  4 53rd St                  4 Avenue
##  5 59th St                  4 Avenue
##  6 77th St                  4 Avenue
##  7 86th St                  4 Avenue
##  8 95th St                  4 Avenue
##  9 9th St                   4 Avenue
## 10 Atlantic Av-Barclays Ctr 4 Avenue
## # … with 455 more rows
```

``` r
trans_ent %>% 
  filter(ada == TRUE) %>% 
  select(station_name, line) %>% 
  distinct
## # A tibble: 84 × 2
##    station_name                   line           
##    <chr>                          <chr>          
##  1 Atlantic Av-Barclays Ctr       4 Avenue       
##  2 DeKalb Av                      4 Avenue       
##  3 Pacific St                     4 Avenue       
##  4 Grand Central                  42nd St Shuttle
##  5 34th St                        6 Avenue       
##  6 47-50th Sts Rockefeller Center 6 Avenue       
##  7 Church Av                      6 Avenue       
##  8 21st St                        63rd Street    
##  9 Lexington Av                   63rd Street    
## 10 Roosevelt Island               63rd Street    
## # … with 74 more rows
```
…
``` r
trans_ent %>% 
  pivot_longer(
    route1:route11,
    names_to = "route_num",
    values_to = "route") %>% 
  filter(route == "A") %>% 
  select(station_name, line) %>% 
  distinct
## # A tibble: 60 × 2
##    station_name                  line           
##    <chr>                         <chr>          
##  1 Times Square                  42nd St Shuttle
##  2 125th St                      8 Avenue       
##  3 145th St                      8 Avenue       
##  4 14th St                       8 Avenue       
##  5 168th St - Washington Heights 8 Avenue       
##  6 175th St                      8 Avenue       
##  7 181st St                      8 Avenue       
##  8 190th St                      8 Avenue       
##  9 34th St                       8 Avenue       
## 10 42nd St                       8 Avenue       
## # … with 50 more rows
…
# Read and clean the Mr. Trash Wheel sheet

``` r
trash_data = 
  read_excel("data/trash.xlsx", sheet = "Mr. Trash Wheel", range = cell_cols("A:N"), skip = 1) %>%
  janitor::clean_names() %>%
  drop_na(dumpster) %>%
  drop_na(month) %>%
  mutate(
    sports_balls = as.integer(round(sports_balls)),
    trash_name = "Mr.",
    year = as.integer(year)
  )
trash_data
## # A tibble: 547 × 15
##    dumpster month  year date                weight_tons volume…¹ plast…² polys…³
##       <dbl> <chr> <int> <dttm>                    <dbl>    <dbl>   <dbl>   <dbl>
##  1        1 May    2014 2014-05-16 00:00:00        4.31       18    1450    1820
##  2        2 May    2014 2014-05-16 00:00:00        2.74       13    1120    1030
##  3        3 May    2014 2014-05-16 00:00:00        3.45       15    2450    3100
##  4        4 May    2014 2014-05-17 00:00:00        3.1        15    2380    2730
##  5        5 May    2014 2014-05-17 00:00:00        4.06       18     980     870
##  6        6 May    2014 2014-05-20 00:00:00        2.71       13    1430    2140
##  7        7 May    2014 2014-05-21 00:00:00        1.91        8     910    1090
##  8        8 May    2014 2014-05-28 00:00:00        3.7        16    3580    4310
##  9        9 June   2014 2014-06-05 00:00:00        2.52       14    2400    2790
## 10       10 June   2014 2014-06-11 00:00:00        3.76       18    1340    1730
## # … with 537 more rows, 7 more variables: cigarette_butts <dbl>,
## #   glass_bottles <dbl>, grocery_bags <dbl>, chip_bags <dbl>,
## #   sports_balls <int>, homes_powered <dbl>, trash_name <chr>, and abbreviated
## #   variable names ¹​volume_cubic_yards, ²​plastic_bottles, ³​polystyrene
```

# Read and clean the Professor Trash Wheel sheet

``` r
professor_data = 
  read_excel("data/trash.xlsx", sheet = "Professor Trash Wheel", range = cell_cols("A:M"), skip = 1) %>%
  janitor::clean_names() %>%
  drop_na(dumpster) %>%
  mutate(
    trash_name = "prof"
  )

professor_data
## # A tibble: 94 × 14
##    dumpster month     year date                weight_…¹ volum…² plast…³ polys…⁴
##       <dbl> <chr>    <dbl> <dttm>                  <dbl>   <dbl>   <dbl>   <dbl>
##  1        1 January   2017 2017-01-02 00:00:00      1.79      15    1950    6080
##  2        2 January   2017 2017-01-30 00:00:00      1.58      15    9540   11230
##  3        3 February  2017 2017-02-26 00:00:00      2.32      18    8350    9210
##  4        4 February  2017 2017-02-26 00:00:00      3.72      15    8590    1030
##  5        5 February  2017 2017-02-28 00:00:00      1.45      15    7830    9950
##  6        6 March     2017 2017-03-30 00:00:00      1.71      15    8210   10340
##  7        7 April     2017 2017-04-01 00:00:00      1.82      15    9830   11020
##  8        8 April     2017 2017-04-20 00:00:00      2.37      15    9240    8760
##  9        9 May       2017 2017-05-10 00:00:00      2.64      15    9540    8810
## 10       10 May       2017 2017-05-26 00:00:00      2.78      15    8230    7800
## # … with 84 more rows, 6 more variables: cigarette_butts <dbl>,
## #   glass_bottles <dbl>, grocery_bags <dbl>, chip_bags <dbl>,
## #   homes_powered <dbl>, trash_name <chr>, and abbreviated variable names
## #   ¹​weight_tons, ²​volume_cubic_yards, ³​plastic_bottles, ⁴​polystyrene
```

\#Combine two dataset

``` r
combine_data = 
  bind_rows(trash_data, professor_data)
  
combine_data
## # A tibble: 641 × 15
##    dumpster month  year date                weight_tons volume…¹ plast…² polys…³
##       <dbl> <chr> <dbl> <dttm>                    <dbl>    <dbl>   <dbl>   <dbl>
##  1        1 May    2014 2014-05-16 00:00:00        4.31       18    1450    1820
##  2        2 May    2014 2014-05-16 00:00:00        2.74       13    1120    1030
##  3        3 May    2014 2014-05-16 00:00:00        3.45       15    2450    3100
##  4        4 May    2014 2014-05-17 00:00:00        3.1        15    2380    2730
##  5        5 May    2014 2014-05-17 00:00:00        4.06       18     980     870
##  6        6 May    2014 2014-05-20 00:00:00        2.71       13    1430    2140
##  7        7 May    2014 2014-05-21 00:00:00        1.91        8     910    1090
##  8        8 May    2014 2014-05-28 00:00:00        3.7        16    3580    4310
##  9        9 June   2014 2014-06-05 00:00:00        2.52       14    2400    2790
## 10       10 June   2014 2014-06-11 00:00:00        3.76       18    1340    1730
## # … with 631 more rows, 7 more variables: cigarette_butts <dbl>,
## #   glass_bottles <dbl>, grocery_bags <dbl>, chip_bags <dbl>,
## #   sports_balls <int>, homes_powered <dbl>, trash_name <chr>, and abbreviated
## #   variable names ¹​volume_cubic_yards, ²​plastic_bottles, ³​polystyrene
```
…
pols_data
## # A tibble: 822 × 9
##     year month     president gov_gop sen_gop rep_gop gov_dem sen_dem rep_dem
##    <int> <chr>     <chr>       <dbl>   <dbl>   <dbl>   <dbl>   <dbl>   <dbl>
##  1  1947 January   dem            23      51     253      23      45     198
##  2  1947 February  dem            23      51     253      23      45     198
##  3  1947 March     dem            23      51     253      23      45     198
##  4  1947 April     dem            23      51     253      23      45     198
##  5  1947 May       dem            23      51     253      23      45     198
##  6  1947 June      dem            23      51     253      23      45     198
##  7  1947 July      dem            23      51     253      23      45     198
##  8  1947 August    dem            23      51     253      23      45     198
##  9  1947 September dem            23      51     253      23      45     198
## 10  1947 October   dem            23      51     253      23      45     198
## # … with 812 more rows
```
…
``` r
snp_data = 
  read_csv("data/snp.csv") %>%
  janitor::clean_names() %>%
  mutate(
    month = month(mdy(date)),
    year = year(mdy(date)),
    year = ifelse(year >= 2050, year - 100, year)) %>%
  select(year, month, close) %>%
  mutate(
    month = month.name[month]) %>%
  arrange(year, month)

snp_data
## # A tibble: 787 × 3
##     year month    close
##    <dbl> <chr>    <dbl>
##  1  1950 April     18.0
##  2  1950 August    18.4
##  3  1950 December  20.4
##  4  1950 February  17.2
##  5  1950 January   17.0
##  6  1950 July      17.8
##  7  1950 June      17.7
##  8  1950 March     17.3
##  9  1950 May       18.8
## 10  1950 November  19.5
## # … with 777 more rows
```
…
``` r
unemploy_data = 
  read_csv("data/unemployment.csv") %>%
  janitor::clean_names() %>%
  pivot_longer(
    jan:dec,
    names_to = 'month',
    values_to = 'unemployment') %>%
  mutate(
    month = recode(month, "jan" = 1, "feb" = 2, "mar" = 3, "apr" = 4, "may" = 5, "jun" = 6, "jul" = 7, "aug" = 8, "sep" = 9, "oct" = 10, "nov" = 11, "dec" = 12),
    month = month.name[month]
  )

unemploy_data
## # A tibble: 816 × 3
##     year month     unemployment
##    <dbl> <chr>            <dbl>
##  1  1948 January            3.4
##  2  1948 February           3.8
##  3  1948 March              4  
##  4  1948 April              3.9
##  5  1948 May                3.5
##  6  1948 June               3.6
##  7  1948 July               3.6
##  8  1948 August             3.9
##  9  1948 September          3.8
## 10  1948 October            3.7
## # … with 806 more rows
```

\#combine the data set

``` r
pols_snp =
  left_join(pols_data, snp_data, by = c("year", "month"))

pols_snp_unemploy = 
  left_join(pols_snp, unemploy_data, by = c("year", "month")) %>%
  arrange(year, month)

pols_snp_unemploy
## # A tibble: 822 × 11
##     year month    presid…¹ gov_gop sen_gop rep_gop gov_dem sen_dem rep_dem close
##    <dbl> <chr>    <chr>      <dbl>   <dbl>   <dbl>   <dbl>   <dbl>   <dbl> <dbl>
##  1  1947 April    dem           23      51     253      23      45     198    NA
##  2  1947 August   dem           23      51     253      23      45     198    NA
##  3  1947 December dem           24      51     253      23      45     198    NA
##  4  1947 February dem           23      51     253      23      45     198    NA
##  5  1947 January  dem           23      51     253      23      45     198    NA
##  6  1947 July     dem           23      51     253      23      45     198    NA
##  7  1947 June     dem           23      51     253      23      45     198    NA
##  8  1947 March    dem           23      51     253      23      45     198    NA
##  9  1947 May      dem           23      51     253      23      45     198    NA
## 10  1947 November dem           24      51     253      23      45     198    NA
## # … with 812 more rows, 1 more variable: unemployment <dbl>, and abbreviated
## #   variable name ¹​president
```
…
